1 0.925101 0.901381
2 0.925101 0.901381
3 0.925101 0.901381
4 0.925101 0.901381
5 0.925101 0.901381
6 0.925101 0.901381
7 0.925101 0.901381
8 0.925101 0.901381
9 0.925101 0.901381
10 0.925101 0.901381
11 0.925101 0.901381
12 0.925101 0.901381
13 0.925101 0.901381
14 0.925101 0.901381
15 0.925101 0.901381
16 0.925101 0.901381
17 0.925101 0.901381
18 0.925101 0.901381
19 0.925101 0.901381
20 0.925101 0.901381
21 0.925101 0.901381
22 0.925101 0.901381
23 0.925101 0.901381
24 0.925101 0.901381
25 0.925101 0.901381
26 0.925101 0.901381
27 0.925101 0.901381
28 0.925101 0.901381
29 0.925101 0.901381
30 0.925101 0.901381
31 0.925101 0.901381
32 0.925101 0.901381
33 0.925101 0.901381
34 0.925101 0.901381
35 0.925101 0.901381
36 0.925101 0.901381
37 0.925101 0.901381
38 0.925101 0.901381
39 0.925101 0.901381
40 0.925101 0.901381
41 0.925101 0.901381
42 0.925101 0.901381
43 0.925101 0.901381
44 0.925101 0.901381
45 0.925101 0.901381
46 0.925101 0.901381
47 0.925101 0.901381
48 0.925101 0.901381
49 0.925101 0.901381
50 0.925101 0.901381
51 0.925101 0.901381
52 0.925101 0.901381
53 0.925101 0.901381
54 0.925101 0.901381
55 0.925101 0.901381
56 0.925101 0.901381
57 0.925101 0.901381
58 0.925101 0.901381
59 0.925101 0.901381
60 0.925101 0.901381
61 0.925101 0.901381
62 0.925101 0.901381
63 0.925101 0.901381
64 0.925101 0.901381
65 0.925101 0.901381
66 0.925101 0.901381
67 0.925101 0.901381
68 0.925101 0.901381
69 0.925101 0.901381
70 0.925101 0.901381
71 0.925101 0.901381
72 0.925101 0.901381
73 0.925101 0.901381
74 0.925101 0.901381
75 0.925101 0.901381
76 0.925101 0.901381
77 0.925101 0.901381
78 0.925101 0.901381
79 0.925101 0.901381
80 0.925101 0.901381
81 0.925101 0.901381
82 0.924949 0.899408
83 0.924025 0.887574
84 0.939914 0.848837
85 0.950392 0.693333
86 0.955224 0.604915
87 0.948980 0.527410
88 0.935345 0.410208
89 0.913793 0.300567
90 0.886364 0.221172
91 0.750000 0.061914
92 1.000000 0.034926
93 1.000000 0.031250
94 1.000000 0.025735
95 1.000000 0.020221
96 1.000000 0.014706
97 1.000000 0.011029
98 1.000000 0.007353
99 1.000000 0.003676
100 1.000000 0.001838
