1 0.846442 0.978355
2 0.846442 0.978355
3 0.846442 0.978355
4 0.846442 0.978355
5 0.846442 0.978355
6 0.846442 0.978355
7 0.846442 0.978355
8 0.846442 0.978355
9 0.846442 0.978355
10 0.846442 0.978355
11 0.846442 0.978355
12 0.846442 0.978355
13 0.846442 0.978355
14 0.846442 0.978355
15 0.846442 0.978355
16 0.846442 0.978355
17 0.846442 0.978355
18 0.846442 0.978355
19 0.846442 0.978355
20 0.846442 0.978355
21 0.846442 0.978355
22 0.846442 0.978355
23 0.846442 0.978355
24 0.846442 0.978355
25 0.846442 0.978355
26 0.846442 0.978355
27 0.846442 0.978355
28 0.846442 0.978355
29 0.846442 0.978355
30 0.846442 0.978355
31 0.846442 0.978355
32 0.846442 0.978355
33 0.846442 0.978355
34 0.846442 0.978355
35 0.846442 0.978355
36 0.846442 0.978355
37 0.855787 0.963675
38 0.855787 0.963675
39 0.855787 0.963675
40 0.855787 0.963675
41 0.855787 0.963675
42 0.855787 0.963675
43 0.855787 0.963675
44 0.855787 0.963675
45 0.855787 0.963675
46 0.864706 0.928421
47 0.864706 0.928421
48 0.864706 0.928421
49 0.864706 0.928421
50 0.864706 0.928421
51 0.864706 0.928421
52 0.864706 0.928421
53 0.864706 0.928421
54 0.864706 0.928421
55 0.870902 0.883576
56 0.870902 0.883576
57 0.870902 0.883576
58 0.870902 0.883576
59 0.870902 0.883576
60 0.870902 0.883576
61 0.870902 0.883576
62 0.870902 0.883576
63 0.870902 0.883576
64 0.875274 0.821355
65 0.875274 0.821355
66 0.875274 0.821355
67 0.875274 0.821355
68 0.875274 0.821355
69 0.875274 0.821355
70 0.875274 0.821355
71 0.875274 0.821355
72 0.875274 0.821355
73 0.878412 0.715151
74 0.878412 0.715151
75 0.878412 0.715151
76 0.878412 0.715151
77 0.878412 0.715151
78 0.878412 0.715151
79 0.878412 0.715151
80 0.878412 0.715151
81 0.878412 0.715151
82 0.884984 0.545276
83 0.884984 0.545276
84 0.884984 0.545276
85 0.884984 0.545276
86 0.884984 0.545276
87 0.884984 0.545276
88 0.884984 0.545276
89 0.884984 0.545276
90 0.884984 0.545276
91 0.913043 0.318182
92 0.913043 0.318182
93 0.913043 0.318182
94 0.913043 0.318182
95 0.913043 0.318182
96 0.913043 0.318182
97 0.913043 0.318182
98 0.913043 0.318182
99 0.913043 0.318182
100 0.913043 0.318182
