1 0.864372 0.895178
2 0.864372 0.895178
3 0.864372 0.895178
4 0.864372 0.895178
5 0.864372 0.895178
6 0.864372 0.895178
7 0.864372 0.895178
8 0.864372 0.895178
9 0.864372 0.895178
10 0.864372 0.895178
11 0.864372 0.895178
12 0.864372 0.895178
13 0.864372 0.895178
14 0.864372 0.895178
15 0.864372 0.895178
16 0.864372 0.895178
17 0.864372 0.895178
18 0.864372 0.895178
19 0.864372 0.895178
20 0.864372 0.895178
21 0.864372 0.895178
22 0.864372 0.895178
23 0.864372 0.895178
24 0.864372 0.895178
25 0.864372 0.895178
26 0.864372 0.895178
27 0.864372 0.895178
28 0.864372 0.895178
29 0.864372 0.895178
30 0.864372 0.895178
31 0.864372 0.895178
32 0.864372 0.895178
33 0.864372 0.895178
34 0.864372 0.895178
35 0.864372 0.895178
36 0.864372 0.895178
37 0.864372 0.895178
38 0.864372 0.895178
39 0.864372 0.895178
40 0.864372 0.895178
41 0.864372 0.895178
42 0.864372 0.895178
43 0.864372 0.895178
44 0.864372 0.895178
45 0.864372 0.895178
46 0.864372 0.895178
47 0.864372 0.895178
48 0.864372 0.895178
49 0.864372 0.895178
50 0.864372 0.895178
51 0.864372 0.895178
52 0.864372 0.895178
53 0.864372 0.895178
54 0.864372 0.895178
55 0.864372 0.895178
56 0.864372 0.895178
57 0.864372 0.895178
58 0.864372 0.895178
59 0.864372 0.895178
60 0.864372 0.895178
61 0.864372 0.895178
62 0.864372 0.895178
63 0.864372 0.895178
64 0.864372 0.895178
65 0.864372 0.895178
66 0.864372 0.895178
67 0.864372 0.895178
68 0.864372 0.895178
69 0.864372 0.895178
70 0.864372 0.895178
71 0.864372 0.895178
72 0.864372 0.895178
73 0.864372 0.895178
74 0.864372 0.895178
75 0.864372 0.895178
76 0.864372 0.895178
77 0.864372 0.895178
78 0.864372 0.895178
79 0.864372 0.895178
80 0.864097 0.893082
81 0.870103 0.877339
82 0.889126 0.847561
83 0.908884 0.791667
84 0.914948 0.694716
85 0.913433 0.594175
86 0.932271 0.444023
87 0.924528 0.371212
88 0.912698 0.215760
89 0.933333 0.129870
90 0.972973 0.066298
91 0.962963 0.047882
92 1.000000 0.031250
93 1.000000 0.023897
94 1.000000 0.016544
95 1.000000 0.014706
96 1.000000 0.012868
97 1.000000 0.009191
98 1.000000 0.007353
99 1.000000 0.003676
100 1.000000 0.000000
