1 0.798893 0.995402
2 0.798893 0.995402
3 0.798893 0.995402
4 0.798893 0.995402
5 0.798893 0.995402
6 0.798893 0.995402
7 0.798893 0.995402
8 0.798893 0.995402
9 0.798893 0.995402
10 0.798893 0.995402
11 0.798893 0.995402
12 0.798893 0.995402
13 0.798893 0.995402
14 0.798893 0.995402
15 0.798893 0.995402
16 0.798893 0.995402
17 0.798893 0.995402
18 0.798893 0.995402
19 0.798893 0.995402
20 0.798893 0.995402
21 0.798893 0.995402
22 0.798893 0.995402
23 0.798893 0.995402
24 0.798893 0.995402
25 0.798893 0.995402
26 0.798893 0.995402
27 0.798893 0.995402
28 0.798893 0.995402
29 0.798893 0.995402
30 0.798893 0.995402
31 0.798893 0.995402
32 0.798893 0.995402
33 0.798893 0.995402
34 0.798893 0.995402
35 0.798893 0.995402
36 0.798893 0.995402
37 0.798893 0.995402
38 0.798893 0.995402
39 0.798893 0.995402
40 0.798893 0.995402
41 0.798893 0.995402
42 0.798893 0.995402
43 0.798893 0.995402
44 0.798893 0.995402
45 0.798893 0.995402
46 0.798893 0.995402
47 0.798893 0.995402
48 0.798893 0.995402
49 0.798893 0.995402
50 0.798893 0.995402
51 0.798893 0.995402
52 0.798893 0.995402
53 0.798893 0.995402
54 0.798893 0.995402
55 0.798893 0.995402
56 0.798893 0.995402
57 0.798893 0.995402
58 0.798893 0.995402
59 0.798893 0.995402
60 0.798893 0.995402
61 0.798893 0.995402
62 0.798893 0.995402
63 0.798893 0.995402
64 0.798893 0.995402
65 0.798893 0.995402
66 0.798893 0.995402
67 0.798893 0.995402
68 0.798893 0.995402
69 0.798893 0.995402
70 0.798893 0.995402
71 0.798893 0.995402
72 0.798893 0.995402
73 0.798893 0.995402
74 0.798893 0.995402
75 0.798893 0.995402
76 0.798893 0.995402
77 0.798893 0.995402
78 0.798893 0.995402
79 0.798893 0.995402
80 0.798893 0.995402
81 0.798893 0.995402
82 0.798148 0.990805
83 0.803002 0.974943
84 0.809981 0.948315
85 0.806262 0.925843
86 0.795789 0.845638
87 0.790948 0.821029
88 0.788546 0.799107
89 0.787529 0.754425
90 0.787440 0.714912
91 0.783163 0.668845
92 0.790885 0.633047
93 0.803519 0.574423
94 0.804636 0.501031
95 0.815261 0.407631
96 0.840909 0.286822
97 0.862385 0.177694
98 1.000000 0.091912
99 1.000000 0.042279
100 1.000000 0.000000
