1 0.787823 0.995338
2 0.787823 0.995338
3 0.787823 0.995338
4 0.787823 0.995338
5 0.787823 0.995338
6 0.787823 0.995338
7 0.787823 0.995338
8 0.787823 0.995338
9 0.787823 0.995338
10 0.787823 0.995338
11 0.787823 0.995338
12 0.787823 0.995338
13 0.787823 0.995338
14 0.787823 0.995338
15 0.787823 0.995338
16 0.787823 0.995338
17 0.787823 0.995338
18 0.787823 0.995338
19 0.787823 0.995338
20 0.787823 0.995338
21 0.787823 0.995338
22 0.787823 0.995338
23 0.787823 0.995338
24 0.787823 0.995338
25 0.787823 0.995338
26 0.787823 0.995338
27 0.787823 0.995338
28 0.787823 0.995338
29 0.787823 0.995338
30 0.787823 0.995338
31 0.787823 0.995338
32 0.787823 0.995338
33 0.787823 0.995338
34 0.787823 0.995338
35 0.787823 0.995338
36 0.787823 0.995338
37 0.787823 0.995338
38 0.787823 0.995338
39 0.787823 0.995338
40 0.787823 0.995338
41 0.787823 0.995338
42 0.787823 0.995338
43 0.787823 0.995338
44 0.787823 0.995338
45 0.787823 0.995338
46 0.787823 0.995338
47 0.787823 0.995338
48 0.787823 0.995338
49 0.787823 0.995338
50 0.787823 0.995338
51 0.787823 0.995338
52 0.787823 0.995338
53 0.787823 0.995338
54 0.787823 0.995338
55 0.787823 0.995338
56 0.787823 0.995338
57 0.787823 0.995338
58 0.787823 0.995338
59 0.787823 0.995338
60 0.787823 0.995338
61 0.787823 0.995338
62 0.787823 0.995338
63 0.787823 0.995338
64 0.787823 0.995338
65 0.787823 0.995338
66 0.787823 0.995338
67 0.787823 0.995338
68 0.787823 0.995338
69 0.787823 0.995338
70 0.787823 0.995338
71 0.787823 0.995338
72 0.787823 0.995338
73 0.787823 0.995338
74 0.787823 0.995338
75 0.787823 0.995338
76 0.787823 0.995338
77 0.787823 0.995338
78 0.787823 0.995338
79 0.787823 0.995338
80 0.787823 0.995338
81 0.787823 0.995338
82 0.792208 0.988426
83 0.795113 0.972414
84 0.800766 0.950000
85 0.798828 0.927438
86 0.787815 0.846501
87 0.782328 0.819413
88 0.780702 0.801802
89 0.782910 0.753333
90 0.785024 0.714286
91 0.785166 0.667391
92 0.787634 0.630108
93 0.800000 0.571429
94 0.799331 0.493802
95 0.815261 0.407631
96 0.825843 0.286550
97 0.845455 0.176471
98 0.982143 0.101289
99 1.000000 0.047794
100 1.000000 0.000000
