1 0.823887 0.890591
2 0.823887 0.890591
3 0.823887 0.890591
4 0.823887 0.890591
5 0.823887 0.890591
6 0.823887 0.890591
7 0.823887 0.890591
8 0.823887 0.890591
9 0.823887 0.890591
10 0.823887 0.890591
11 0.823887 0.890591
12 0.823887 0.890591
13 0.823887 0.890591
14 0.823887 0.890591
15 0.823887 0.890591
16 0.823887 0.890591
17 0.823887 0.890591
18 0.823887 0.890591
19 0.823887 0.890591
20 0.823887 0.890591
21 0.823887 0.890591
22 0.823887 0.890591
23 0.823887 0.890591
24 0.823887 0.890591
25 0.823887 0.890591
26 0.823887 0.890591
27 0.823887 0.890591
28 0.823887 0.890591
29 0.823887 0.890591
30 0.823887 0.890591
31 0.823887 0.890591
32 0.823887 0.890591
33 0.823887 0.890591
34 0.823887 0.890591
35 0.823887 0.890591
36 0.823887 0.890591
37 0.823887 0.890591
38 0.823887 0.890591
39 0.823887 0.890591
40 0.823887 0.890591
41 0.823171 0.886214
42 0.823171 0.886214
43 0.821355 0.875274
44 0.821355 0.875274
45 0.821355 0.875274
46 0.819502 0.864333
47 0.819502 0.864333
48 0.816456 0.846827
49 0.816456 0.846827
50 0.816456 0.846827
51 0.814411 0.812636
52 0.814411 0.812636
53 0.821596 0.747863
54 0.821596 0.747863
55 0.821596 0.747863
56 0.825613 0.631250
57 0.825613 0.631250
58 0.829508 0.514228
59 0.829508 0.514228
60 0.829508 0.514228
61 0.838298 0.389328
62 0.838298 0.389328
63 0.835294 0.275194
64 0.835294 0.275194
65 0.835294 0.275194
66 0.885714 0.174812
67 0.885714 0.174812
68 0.932432 0.128015
69 0.932432 0.128015
70 0.932432 0.128015
71 0.964912 0.101476
72 0.964912 0.101476
73 1.000000 0.093750
74 1.000000 0.093750
75 1.000000 0.093750
76 1.000000 0.084559
77 1.000000 0.084559
78 1.000000 0.075368
79 1.000000 0.075368
80 1.000000 0.075368
81 1.000000 0.069853
82 1.000000 0.069853
83 1.000000 0.064338
84 1.000000 0.064338
85 1.000000 0.064338
86 1.000000 0.060662
87 1.000000 0.060662
88 1.000000 0.055147
89 1.000000 0.055147
90 1.000000 0.055147
91 1.000000 0.036765
92 1.000000 0.036765
93 1.000000 0.012868
94 1.000000 0.012868
95 1.000000 0.012868
96 1.000000 0.009191
97 1.000000 0.009191
98 1.000000 0.003676
99 1.000000 0.003676
100 1.000000 0.003676
