1 0.883895 0.979253
2 0.883895 0.979253
3 0.883895 0.979253
4 0.883895 0.979253
5 0.883895 0.979253
6 0.883895 0.979253
7 0.883895 0.979253
8 0.883895 0.979253
9 0.883895 0.979253
10 0.883895 0.979253
11 0.883895 0.979253
12 0.883895 0.979253
13 0.883895 0.979253
14 0.883895 0.979253
15 0.883895 0.979253
16 0.883895 0.979253
17 0.883895 0.979253
18 0.883895 0.979253
19 0.883895 0.979253
20 0.883895 0.979253
21 0.883895 0.979253
22 0.883895 0.979253
23 0.883895 0.979253
24 0.883895 0.979253
25 0.883895 0.979253
26 0.883895 0.979253
27 0.883895 0.979253
28 0.883895 0.979253
29 0.883895 0.979253
30 0.883895 0.979253
31 0.883895 0.979253
32 0.883895 0.979253
33 0.883895 0.979253
34 0.883895 0.979253
35 0.883895 0.979253
36 0.883895 0.979253
37 0.883895 0.979253
38 0.883895 0.979253
39 0.883895 0.979253
40 0.883895 0.979253
41 0.883895 0.979253
42 0.883895 0.979253
43 0.883895 0.979253
44 0.883895 0.979253
45 0.883895 0.979253
46 0.883895 0.979253
47 0.883895 0.979253
48 0.883895 0.979253
49 0.883895 0.979253
50 0.883895 0.979253
51 0.883895 0.979253
52 0.883895 0.979253
53 0.883895 0.979253
54 0.883895 0.979253
55 0.883895 0.979253
56 0.883895 0.979253
57 0.883895 0.979253
58 0.883895 0.979253
59 0.883895 0.979253
60 0.883895 0.979253
61 0.883895 0.979253
62 0.883895 0.979253
63 0.883895 0.979253
64 0.883895 0.979253
65 0.883895 0.979253
66 0.883895 0.979253
67 0.883895 0.979253
68 0.883895 0.979253
69 0.883895 0.979253
70 0.883895 0.979253
71 0.883895 0.979253
72 0.883895 0.979253
73 0.883895 0.979253
74 0.883895 0.979253
75 0.883895 0.979253
76 0.883895 0.979253
77 0.892045 0.967146
78 0.891635 0.963039
79 0.891221 0.958932
80 0.892514 0.952869
81 0.889336 0.903885
82 0.891832 0.816162
83 0.900709 0.758964
84 0.892670 0.677932
85 0.886905 0.588933
86 0.886121 0.486328
87 0.895397 0.412331
88 0.889474 0.323136
89 0.887417 0.254269
90 0.891089 0.168856
91 0.884058 0.113806
92 0.921569 0.087037
93 1.000000 0.079044
94 1.000000 0.069853
95 1.000000 0.068015
96 1.000000 0.066176
97 1.000000 0.064338
98 1.000000 0.062500
99 1.000000 0.058824
100 1.000000 0.000000
